<?xml version="1.0" encoding="utf-8"?>
<!-- Generator: Adobe Illustrator 17.0.0, SVG Export Plug-In . SVG Version: 6.00 Build 0)  -->
<!DOCTYPE svg PUBLIC "-//W3C//DTD SVG 1.1//EN" "http://www.w3.org/Graphics/SVG/1.1/DTD/svg11.dtd">
<svg version="1.1" id="Layer_1" xmlns="http://www.w3.org/2000/svg" xmlns:xlink="http://www.w3.org/1999/xlink" x="0px" y="0px"
	 width="64px" height="64px" viewBox="0 0 64 64" enable-background="new 0 0 64 64" xml:space="preserve">
<g>
	<path fill="#D3A0A4" d="M22.708,28.546c0,1.599-0.402,3.189-1.205,4.766l-1.536,3.016c-1.222,2.378-3.339,4.334-6.352,5.869
		c-2.606,1.319-5.364,2.108-8.275,2.368c0-5.599-0.906-10.14-2.718-13.621H0.394c0-0.173,0.01-0.508,0.032-1.005
		c0.021-0.432,0.031-0.767,0.031-1.006c0-1.448-0.152-2.648-0.456-3.6h1.97c-0.145-1.522-0.568-2.83-1.27-3.924l-0.496-0.065
		l-0.092-1.2l1.34-0.162l0.06,1.135l-0.487,0.259c0.629,0.973,1.035,2.292,1.218,3.957h0.792v-5.41l-0.517-0.163v-1.141h1.309v1.2
		l-0.487,0.13v5.383h0.761c0-1.34,0.406-2.659,1.218-3.957l-0.456-0.194l0.091-1.135l1.309,0.065l-0.122,1.232L5.646,21.41
		c-0.827,1.158-1.24,2.466-1.24,3.924H6.08c-0.081,0.563-0.121,1.146-0.121,1.751c0,1.341,0.162,2.627,0.487,3.859H3.675
		c0.448,1.194,1.1,3.453,1.955,6.775c3.015-1.373,4.94-2.42,5.776-3.14c0.753-0.653,1.131-1.351,1.131-2.093
		c0-0.741-0.487-1.286-1.462-1.635c-0.467-0.175-1.239-0.316-2.315-0.425c0.284-1.137,0.426-2.264,0.426-3.381
		c0-1.588-0.274-3.188-0.822-4.798H8.88l0.728,2.757c0.445,0.065,1.091,0.184,1.94,0.357c0.99,0.216,1.799,0.638,2.425,1.265
		c0.707,0.714,1.061,1.579,1.061,2.595c0,2.595-1.082,4.694-3.247,6.294c-0.507,0.368-1.427,0.866-2.762,1.493
		c-1.053,0.476-2.114,0.962-3.187,1.459h6.486c1.746,0,3.441-0.499,5.085-1.498c1.929-1.151,2.893-2.562,2.893-4.234
		c0-1.216-1.276-1.824-3.828-1.824c0.429-1.427,0.643-2.669,0.643-3.729c0-0.108-0.031-0.756-0.092-1.945
		c0.263,0.087,1.043,0.194,2.34,0.324c0.891,0.109,1.641,0.389,2.249,0.843C22.342,26.946,22.708,27.659,22.708,28.546z"/>
	<path fill="#D3A0A4" d="M30.95,38.792c-0.937,1.742-1.406,3.611-1.406,5.611l-2.658-0.454c-1.65-0.28-2.475-1.121-2.475-2.525
		c0-0.928,0.328-2.104,0.986-3.529c0.575-1.057,1.139-2.114,1.694-3.173l0.609,0.293l-0.243,1.107
		c-0.142,0.586-0.213,0.944-0.213,1.075c0,0.63,0.668,1.064,2.005,1.303L30.95,38.792z M43.11,24.069
		c-0.731,1.232-1.096,2.778-1.096,4.637c0,0.13,0.02,0.876,0.06,2.237h-1.949l1.188,5.851c0.508,2.492,0.761,3.664,0.761,3.513
		c0,1.708-0.655,3.146-1.965,4.313l-0.524-0.033c0.063-2.421,0.095-3.718,0.095-3.891c0-0.997-0.095-2.285-0.285-3.868l-0.701-5.885
		H24.656c0.183-1.297,0.274-2.638,0.274-4.021c0-1.254-0.102-2.454-0.304-3.6l0.518,0.162l0.274,1.848h1.614l-0.152-4.508H26.27
		l-0.032-1.589h1.524v1.589h-0.639l0.183,4.508h14.586l0.852-1.557L43.11,24.069z"/>
	<path fill="#D3A0A4" d="M64,44.046H50.995c0.446-1.708,0.668-2.994,0.668-3.859c0-0.605-0.06-1.189-0.182-1.751h10.266
		c0.162-0.388,0.243-0.843,0.243-1.362c0-1.578-0.344-2.951-1.032-4.118c-0.831-1.341-1.955-2.011-3.371-2.011H50.57l-2.528,11.74
		l-1.104,1.751l-0.418-0.098l1.949-13.068l-3.563-0.779c0.548-1.505,0.823-3.236,0.823-5.192c0,0.065-0.042-0.161-0.122-0.678
		l2.955,0.646c0.843,0.172,1.433,0.505,1.772,1c0.339,0.495,0.51,1.215,0.51,2.16c0-0.279-0.041,0.399-0.122,2.032
		c0.73-0.108,1.326-0.5,1.792-1.177c0.465-0.677,0.699-1.414,0.699-2.209c0-0.602-0.142-1.172-0.425-1.709h4.022
		c3.737,0,5.849,2.871,6.337,8.613L64,44.046z"/>
</g>
</svg>
